{
	"name": "Video",
	"layers": [
		{
			"name": "Layer 0",
			"overriden": 0,
			"instances": [
				{
					"type": "cutscene2",
					"properties": {
						"webm-source": "",
						"ogg-theora-source": "",
						"h264-source": "",
						"autoplay": "yes",
						"play-in-background": true,
						"initially-visible": true
					},
					"uid": 7652,
					"instanceVariables": {},
					"behaviors": {},
					"world": {
						"x": -8,
						"y": -9,
						"width": 1295,
						"height": 734,
						"originX": 0,
						"originY": 0,
						"color": [
							1,
							1,
							1,
							1
						]
					}
				}
			],
			"sid": 830513307989253,
			"effectTypes": [],
			"isInitiallyVisible": true,
			"color": [
				1,
				1,
				1,
				1
			],
			"backgroundColor": [
				1,
				1,
				1,
				1
			],
			"isTransparent": false,
			"parallaxX": 1,
			"parallaxY": 1,
			"scaleRate": 1,
			"forceOwnTexture": false,
			"useRenderCells": false,
			"blendMode": "normal",
			"global": false
		}
	],
	"sid": 167418409835549,
	"nonworld-instances": [],
	"effectTypes": [],
	"width": 1280,
	"height": 720,
	"unboundedScrolling": false,
	"eventSheet": "Video"
}