{
	"name": "CHEFE_FANTASMA",
	"plugin-id": "Sprite",
	"sid": 244669079539965,
	"isGlobal": false,
	"instanceVariables": [],
	"behaviorTypes": [
		{
			"behaviorId": "Platform",
			"name": "Platform",
			"sid": 199186661536189
		},
		{
			"behaviorId": "Sin",
			"name": "Sine",
			"sid": 270784021536835
		}
	],
	"effectTypes": [],
	"animations": {
		"items": [
			{
				"frames": [
					{
						"width": 522,
						"height": 572,
						"originX": 0.509579,
						"originY": 0.788462,
						"originalSource": "C:\\Users\\leona\\OneDrive\\smaug\\chefe fantasma\\CHEFE3.png",
						"exportFormat": "png",
						"exportQuality": 0.8,
						"imageSpriteId": 8640977,
						"useCollisionPoly": true,
						"duration": 1
					},
					{
						"width": 522,
						"height": 572,
						"originX": 0.375479,
						"originY": 0.718531,
						"originalSource": "C:\\Users\\leona\\OneDrive\\smaug\\chefe fantasma\\CHEFE4.png",
						"exportFormat": "png",
						"exportQuality": 0.8,
						"imageSpriteId": 5244247,
						"useCollisionPoly": true,
						"duration": 1
					},
					{
						"width": 522,
						"height": 572,
						"originX": 0.605364,
						"originY": 0.648601,
						"originalSource": "C:\\Users\\leona\\OneDrive\\smaug\\chefe fantasma\\CHEFE5.png",
						"exportFormat": "png",
						"exportQuality": 0.8,
						"imageSpriteId": 6005910,
						"useCollisionPoly": true,
						"duration": 1
					},
					{
						"width": 522,
						"height": 572,
						"originX": 0.681992,
						"originY": 0.840909,
						"originalSource": "C:\\Users\\leona\\OneDrive\\smaug\\chefe fantasma\\CHEFE6.png",
						"exportFormat": "png",
						"exportQuality": 0.8,
						"imageSpriteId": 2524043,
						"useCollisionPoly": true,
						"duration": 1
					},
					{
						"width": 522,
						"height": 572,
						"originX": 0.643678,
						"originY": 0.928322,
						"originalSource": "C:\\Users\\leona\\OneDrive\\smaug\\chefe fantasma\\CHEFE7.png",
						"exportFormat": "png",
						"exportQuality": 0.8,
						"imageSpriteId": 7098814,
						"useCollisionPoly": true,
						"duration": 1
					}
				],
				"sid": 698132770274533,
				"name": "Default",
				"isLooping": true,
				"isPingPong": false,
				"repeatCount": 1,
				"repeatTo": 0,
				"speed": 8
			}
		],
		"subfolders": []
	}
}