{
	"name": "CHÃO_TERRA",
	"plugin-id": "TiledBg",
	"sid": 519261369083493,
	"isGlobal": false,
	"instanceVariables": [],
	"behaviorTypes": [
		{
			"behaviorId": "solid",
			"name": "Solid",
			"sid": 239096886884544
		}
	],
	"effectTypes": [],
	"image": {
		"width": 80,
		"height": 80,
		"originX": 0.5,
		"originY": 0.5,
		"originalSource": "D:\\sprites\\floresta-2.jpg",
		"exportFormat": "png",
		"exportQuality": 0.8,
		"imageSpriteId": 4097180,
		"useCollisionPoly": true
	}
}