{
	"name": "continuar",
	"plugin-id": "Sprite",
	"sid": 477851947307990,
	"isGlobal": false,
	"instanceVariables": [],
	"behaviorTypes": [],
	"effectTypes": [],
	"animations": {
		"items": [
			{
				"frames": [
					{
						"width": 1022,
						"height": 212,
						"originX": 0.5,
						"originY": 0.5,
						"originalSource": "",
						"exportFormat": "png",
						"exportQuality": 0.8,
						"imageSpriteId": 592084,
						"collisionPoly": {
							"points": [
								0,
								0,
								0.5391389432485324,
								0,
								0.9980430528375733,
								1,
								0.9980430528375733,
								1,
								0.5391389432485324,
								1,
								0,
								1,
								0,
								1
							]
						},
						"useCollisionPoly": true,
						"duration": 1
					},
					{
						"width": 1022,
						"height": 192,
						"originX": 0.5,
						"originY": 0.5,
						"originalSource": "",
						"exportFormat": "png",
						"exportQuality": 0.8,
						"imageSpriteId": 9436229,
						"collisionPoly": {
							"points": [
								0.0009784735812133072,
								0,
								0.5391389432485323,
								0,
								0.9980430528375733,
								0.8385416666666666,
								0.9980430528375733,
								0.6770833333333334,
								0.5391389432485323,
								0.9895833333333334,
								0.0009784735812133072,
								1,
								0.0009784735812133072,
								0.8385416666666666
							]
						},
						"useCollisionPoly": true,
						"duration": 1
					}
				],
				"sid": 594045422055935,
				"name": "Animation 1",
				"isLooping": false,
				"isPingPong": false,
				"repeatCount": 1,
				"repeatTo": 0,
				"speed": 0
			}
		],
		"subfolders": []
	}
}