{
	"name": "EXPLOSÃO_TIRO_FRENTE",
	"plugin-id": "Sprite",
	"sid": 140503991929728,
	"isGlobal": false,
	"instanceVariables": [],
	"behaviorTypes": [
		{
			"behaviorId": "Fade",
			"name": "Fade",
			"sid": 723948405643124
		}
	],
	"effectTypes": [],
	"animations": {
		"items": [
			{
				"frames": [
					{
						"width": 21,
						"height": 46,
						"originX": 0,
						"originY": 0.5,
						"originalSource": "C:\\Users\\leona\\OneDrive\\smaug\\tiro\\tiro\\bullets1.png",
						"exportFormat": "png",
						"exportQuality": 0.8,
						"imageSpriteId": 2116353,
						"useCollisionPoly": true,
						"duration": 1
					},
					{
						"width": 26,
						"height": 56,
						"originX": 0,
						"originY": 0.5,
						"originalSource": "C:\\Users\\leona\\OneDrive\\smaug\\tiro\\tiro\\bullets2.png",
						"exportFormat": "png",
						"exportQuality": 0.8,
						"imageSpriteId": 55390,
						"useCollisionPoly": true,
						"duration": 1
					},
					{
						"width": 26,
						"height": 71,
						"originX": 0,
						"originY": 0.507042,
						"originalSource": "C:\\Users\\leona\\OneDrive\\smaug\\tiro\\tiro\\bullets3.png",
						"exportFormat": "png",
						"exportQuality": 0.8,
						"imageSpriteId": 1575663,
						"useCollisionPoly": true,
						"duration": 1
					}
				],
				"sid": 340407272464205,
				"name": "Default",
				"isLooping": false,
				"isPingPong": false,
				"repeatCount": 1,
				"repeatTo": 0,
				"speed": 7
			}
		],
		"subfolders": []
	}
}