{
	"name": "FLOR",
	"plugin-id": "Sprite",
	"sid": 709058090279117,
	"isGlobal": false,
	"instanceVariables": [],
	"behaviorTypes": [],
	"effectTypes": [],
	"animations": {
		"items": [
			{
				"frames": [
					{
						"width": 25,
						"height": 40,
						"originX": 0,
						"originY": 1,
						"originalSource": "C:\\Users\\leona\\OneDrive\\smaug\\sprites.png",
						"exportFormat": "png",
						"exportQuality": 0.8,
						"imageSpriteId": 730387,
						"collisionPoly": {
							"points": [
								0,
								0,
								1,
								0,
								1,
								0.987805,
								1,
								0.987805,
								1,
								0.987805,
								1,
								0.987805
							]
						},
						"useCollisionPoly": true,
						"duration": 1
					}
				],
				"sid": 269671277251841,
				"name": "Default",
				"isLooping": false,
				"isPingPong": false,
				"repeatCount": 1,
				"repeatTo": 0,
				"speed": 5
			}
		],
		"subfolders": []
	}
}