{
	"name": "inimigoAzul",
	"plugin-id": "Sprite",
	"sid": 574814013168161,
	"isGlobal": false,
	"instanceVariables": [
		{
			"name": "vida",
			"type": "number",
			"desc": "",
			"sid": 446466792300680
		}
	],
	"behaviorTypes": [
		{
			"behaviorId": "Platform",
			"name": "Platform",
			"sid": 120327815964040
		},
		{
			"behaviorId": "Flash",
			"name": "Flash",
			"sid": 345063082821385
		},
		{
			"behaviorId": "Fade",
			"name": "Fade",
			"sid": 149832041157266
		},
		{
			"behaviorId": "LOS",
			"name": "LineOfSight",
			"sid": 882281187764316
		},
		{
			"behaviorId": "Sin",
			"name": "Sine",
			"sid": 301565920337808
		}
	],
	"effectTypes": [],
	"animations": {
		"items": [
			{
				"frames": [
					{
						"width": 56,
						"height": 51,
						"originX": 0.642857,
						"originY": 0.509804,
						"originalSource": "D:\\sprites\\inimigo\\azul\\inimigo azul1.png",
						"exportFormat": "png",
						"exportQuality": 0.8,
						"imageSpriteId": 8998633,
						"collisionPoly": {
							"points": [
								0.0178571,
								0,
								0.982143,
								0,
								0.982143,
								1,
								0.0178571,
								1
							]
						},
						"useCollisionPoly": true,
						"imagePoints": [
							{
								"name": "Imagepoint 1",
								"x": 1,
								"y": 0.509804
							},
							{
								"name": "Imagepoint 2",
								"x": 0,
								"y": 0.509804
							}
						],
						"duration": 1
					},
					{
						"width": 56,
						"height": 56,
						"originX": 0.5,
						"originY": 0.5,
						"originalSource": "D:\\sprites\\inimigo\\azul\\inimigo azul2.png",
						"exportFormat": "png",
						"exportQuality": 0.8,
						"imageSpriteId": 893274,
						"useCollisionPoly": true,
						"imagePoints": [
							{
								"name": "Imagepoint 1",
								"x": 1,
								"y": 0.5
							},
							{
								"name": "Imagepoint 2",
								"x": 0,
								"y": 0.5
							}
						],
						"duration": 1
					},
					{
						"width": 56,
						"height": 61,
						"originX": 0.5,
						"originY": 0.508197,
						"originalSource": "D:\\sprites\\inimigo\\azul\\inimigo azul3.png",
						"exportFormat": "png",
						"exportQuality": 0.8,
						"imageSpriteId": 760310,
						"useCollisionPoly": true,
						"imagePoints": [
							{
								"name": "Imagepoint 1",
								"x": 1,
								"y": 0.508197
							},
							{
								"name": "Imagepoint 2",
								"x": 0,
								"y": 0.508197
							}
						],
						"duration": 1
					},
					{
						"width": 56,
						"height": 71,
						"originX": 0.5,
						"originY": 0.507042,
						"originalSource": "D:\\sprites\\inimigo\\azul\\inimigo azul4.png",
						"exportFormat": "png",
						"exportQuality": 0.8,
						"imageSpriteId": 1309203,
						"useCollisionPoly": true,
						"imagePoints": [
							{
								"name": "Imagepoint 1",
								"x": 1,
								"y": 0.507042
							},
							{
								"name": "Imagepoint 2",
								"x": 0,
								"y": 0.507042
							}
						],
						"duration": 1
					},
					{
						"width": 56,
						"height": 51,
						"originX": 0.5,
						"originY": 0.509804,
						"originalSource": "D:\\sprites\\inimigo\\azul\\inimigo azul5.png",
						"exportFormat": "png",
						"exportQuality": 0.8,
						"imageSpriteId": 1624572,
						"useCollisionPoly": true,
						"imagePoints": [
							{
								"name": "Imagepoint 1",
								"x": 1,
								"y": 0.509804
							},
							{
								"name": "Imagepoint 2",
								"x": 0,
								"y": 0.509804
							}
						],
						"duration": 1
					}
				],
				"sid": 439069261247857,
				"name": "Default",
				"isLooping": true,
				"isPingPong": false,
				"repeatCount": 1,
				"repeatTo": 0,
				"speed": 5
			}
		],
		"subfolders": []
	}
}