{
	"name": "JOIA_AZUL",
	"plugin-id": "Sprite",
	"sid": 773500999597895,
	"isGlobal": false,
	"instanceVariables": [],
	"behaviorTypes": [],
	"effectTypes": [],
	"animations": {
		"items": [
			{
				"frames": [
					{
						"width": 56,
						"height": 51,
						"originX": 0,
						"originY": 0,
						"originalSource": "C:\\Users\\leona\\OneDrive\\smaug\\inimigo azuk\\loot\\inimigo azul9.png",
						"exportFormat": "png",
						"exportQuality": 0.8,
						"imageSpriteId": 6215077,
						"useCollisionPoly": true,
						"duration": 1
					},
					{
						"width": 56,
						"height": 51,
						"originX": 0,
						"originY": 0,
						"originalSource": "C:\\Users\\leona\\OneDrive\\smaug\\inimigo azuk\\loot\\inimigo azul2.png",
						"exportFormat": "png",
						"exportQuality": 0.8,
						"imageSpriteId": 1432451,
						"useCollisionPoly": true,
						"duration": 1
					},
					{
						"width": 56,
						"height": 51,
						"originX": 0,
						"originY": 0,
						"originalSource": "C:\\Users\\leona\\OneDrive\\smaug\\inimigo azuk\\loot\\inimigo azul3.png",
						"exportFormat": "png",
						"exportQuality": 0.8,
						"imageSpriteId": 6027968,
						"useCollisionPoly": true,
						"duration": 1
					},
					{
						"width": 56,
						"height": 51,
						"originX": 0,
						"originY": 0,
						"originalSource": "C:\\Users\\leona\\OneDrive\\smaug\\inimigo azuk\\loot\\inimigo azul4.png",
						"exportFormat": "png",
						"exportQuality": 0.8,
						"imageSpriteId": 8306285,
						"useCollisionPoly": true,
						"duration": 1
					},
					{
						"width": 56,
						"height": 51,
						"originX": 0,
						"originY": 0,
						"originalSource": "C:\\Users\\leona\\OneDrive\\smaug\\inimigo azuk\\loot\\inimigo azul5.png",
						"exportFormat": "png",
						"exportQuality": 0.8,
						"imageSpriteId": 6824011,
						"useCollisionPoly": true,
						"duration": 1
					},
					{
						"width": 56,
						"height": 51,
						"originX": 0,
						"originY": 0,
						"originalSource": "C:\\Users\\leona\\OneDrive\\smaug\\inimigo azuk\\loot\\inimigo azul6.png",
						"exportFormat": "png",
						"exportQuality": 0.8,
						"imageSpriteId": 9574369,
						"useCollisionPoly": true,
						"duration": 1
					},
					{
						"width": 56,
						"height": 51,
						"originX": 0,
						"originY": 0,
						"originalSource": "C:\\Users\\leona\\OneDrive\\smaug\\inimigo azuk\\loot\\inimigo azul7.png",
						"exportFormat": "png",
						"exportQuality": 0.8,
						"imageSpriteId": 8906686,
						"useCollisionPoly": true,
						"duration": 1
					},
					{
						"width": 56,
						"height": 51,
						"originX": 0,
						"originY": 0,
						"originalSource": "C:\\Users\\leona\\OneDrive\\smaug\\inimigo azuk\\loot\\inimigo azul8.png",
						"exportFormat": "png",
						"exportQuality": 0.8,
						"imageSpriteId": 9377701,
						"useCollisionPoly": true,
						"duration": 1
					},
					{
						"width": 56,
						"height": 51,
						"originX": 0,
						"originY": 0,
						"originalSource": "C:\\Users\\leona\\OneDrive\\smaug\\inimigo azuk\\loot\\inimigo azul9.png",
						"exportFormat": "png",
						"exportQuality": 0.8,
						"imageSpriteId": 8646311,
						"useCollisionPoly": true,
						"duration": 1
					}
				],
				"sid": 714670407864300,
				"name": "Default",
				"isLooping": true,
				"isPingPong": false,
				"repeatCount": 1,
				"repeatTo": 0,
				"speed": 8
			}
		],
		"subfolders": []
	}
}