{
	"name": "LOJA",
	"plugin-id": "Sprite",
	"sid": 710085260676851,
	"isGlobal": false,
	"instanceVariables": [],
	"behaviorTypes": [],
	"effectTypes": [],
	"animations": {
		"items": [
			{
				"frames": [
					{
						"width": 182,
						"height": 132,
						"originX": 0.5,
						"originY": 1,
						"originalSource": "C:\\Users\\leona\\OneDrive\\smaug\\sprites.png",
						"exportFormat": "png",
						"exportQuality": 0.8,
						"imageSpriteId": 1072420,
						"collisionPoly": {
							"points": [
								0.00677656,
								1,
								1,
								0,
								1,
								1,
								0.520513,
								1,
								1,
								1,
								1,
								1
							]
						},
						"useCollisionPoly": true,
						"duration": 1
					}
				],
				"sid": 253852218572195,
				"name": "Default",
				"isLooping": false,
				"isPingPong": false,
				"repeatCount": 1,
				"repeatTo": 0,
				"speed": 5
			}
		],
		"subfolders": []
	}
}