{
	"name": "LUZ_PLANTA",
	"plugin-id": "Sprite",
	"sid": 139846016323345,
	"isGlobal": false,
	"instanceVariables": [
		{
			"name": "aceso",
			"type": "boolean",
			"desc": "",
			"sid": 370204311146903
		}
	],
	"behaviorTypes": [
		{
			"behaviorId": "Pin",
			"name": "Pin",
			"sid": 872651791166757
		},
		{
			"behaviorId": "Sin",
			"name": "Sine",
			"sid": 136693950040031
		}
	],
	"effectTypes": [],
	"animations": {
		"items": [
			{
				"frames": [
					{
						"width": 32,
						"height": 32,
						"originX": 0.46875,
						"originY": 0.65625,
						"originalSource": "C:\\Users\\leona\\OneDrive\\smaug\\sprites.png",
						"exportFormat": "png",
						"exportQuality": 0.8,
						"imageSpriteId": 1930727,
						"collisionPoly": {
							"points": [
								1,
								0,
								0,
								0,
								0.03125,
								1,
								1,
								1,
								1,
								1,
								1,
								1
							]
						},
						"useCollisionPoly": true,
						"duration": 1
					}
				],
				"sid": 577910369120821,
				"name": "Default",
				"isLooping": false,
				"isPingPong": false,
				"repeatCount": 1,
				"repeatTo": 0,
				"speed": 5
			}
		],
		"subfolders": []
	}
}