{
	"name": "PISTOLA",
	"plugin-id": "Sprite",
	"sid": 107110281438325,
	"isGlobal": false,
	"instanceVariables": [],
	"behaviorTypes": [
		{
			"behaviorId": "Pin",
			"name": "Pin",
			"sid": 270435233847203
		},
		{
			"behaviorId": "Flash",
			"name": "Flash",
			"sid": 686201833886499
		}
	],
	"effectTypes": [],
	"animations": {
		"items": [
			{
				"frames": [
					{
						"width": 46,
						"height": 36,
						"originX": 0.5,
						"originY": 0.5,
						"originalSource": "C:\\Users\\leona\\OneDrive\\smaug\\sprites.png",
						"exportFormat": "png",
						"exportQuality": 0.8,
						"imageSpriteId": 3934256,
						"useCollisionPoly": true,
						"imagePoints": [
							{
								"name": "Imagepoint 1",
								"x": 0.891304,
								"y": 0.527778
							}
						],
						"duration": 1
					},
					{
						"width": 46,
						"height": 36,
						"originX": 0.369565,
						"originY": 0.5,
						"originalSource": "",
						"exportFormat": "png",
						"exportQuality": 0.8,
						"imageSpriteId": 1808779,
						"useCollisionPoly": true,
						"imagePoints": [
							{
								"name": "Imagepoint 1",
								"x": 0.891304,
								"y": 0.527778
							}
						],
						"duration": 1
					}
				],
				"sid": 577548725530639,
				"name": "Default",
				"isLooping": false,
				"isPingPong": false,
				"repeatCount": 1,
				"repeatTo": 0,
				"speed": 15
			}
		],
		"subfolders": []
	}
}