{
	"name": "PLAYER",
	"plugin-id": "Sprite",
	"sid": 941856751605761,
	"isGlobal": false,
	"instanceVariables": [
		{
			"name": "vidas",
			"type": "number",
			"desc": "",
			"sid": 805681829127207
		},
		{
			"name": "Arma",
			"type": "number",
			"desc": "",
			"sid": 216442428654011
		}
	],
	"behaviorTypes": [
		{
			"behaviorId": "Platform",
			"name": "Platform",
			"sid": 276955416615633
		},
		{
			"behaviorId": "bound",
			"name": "BoundToLayout",
			"sid": 836120205449114
		},
		{
			"behaviorId": "scrollto",
			"name": "ScrollTo",
			"sid": 663072662233251
		},
		{
			"behaviorId": "Flash",
			"name": "Flash",
			"sid": 647394483444423
		},
		{
			"behaviorId": "LOS",
			"name": "LineOfSight",
			"sid": 915125353899998
		}
	],
	"effectTypes": [],
	"animations": {
		"items": [
			{
				"frames": [
					{
						"width": 78,
						"height": 83,
						"originX": 0.5,
						"originY": 0.506024,
						"originalSource": "C:\\Users\\leona\\OneDrive\\smaug\\PLAYER\\IDLE\\1.png",
						"exportFormat": "png",
						"exportQuality": 0.8,
						"imageSpriteId": 5972634,
						"collisionPoly": {
							"points": [
								0.217949,
								0.204819,
								0.5,
								0.0240964,
								0.858974,
								0.13253,
								0.923077,
								0.493976,
								0.923077,
								0.927711,
								0.5,
								0.987952,
								0.205128,
								0.807229,
								0.025641,
								0.493976
							]
						},
						"useCollisionPoly": true,
						"imagePoints": [
							{
								"name": "Imagepoint 1",
								"x": 0.923077,
								"y": 0.445783
							},
							{
								"name": "Imagepoint 2",
								"x": 0.6282051282051282,
								"y": 0.5783132530120482
							}
						],
						"duration": 1
					},
					{
						"width": 78,
						"height": 83,
						"originX": 0.5,
						"originY": 0.506024,
						"originalSource": "C:\\Users\\leona\\OneDrive\\smaug\\PLAYER\\IDLE\\2.png",
						"exportFormat": "png",
						"exportQuality": 0.8,
						"imageSpriteId": 8656224,
						"collisionPoly": {
							"points": [
								0.153846,
								0.144578,
								0.5,
								0.0240964,
								0.858974,
								0.13253,
								0.987179,
								0.493976,
								0.910256,
								0.915663,
								0.5,
								0.987952,
								0.217949,
								0.795181,
								0.025641,
								0.493976
							]
						},
						"useCollisionPoly": true,
						"imagePoints": [
							{
								"name": "Imagepoint 1",
								"x": 0.923077,
								"y": 0.409639
							},
							{
								"name": "Imagepoint 2",
								"x": 0.6282051282051282,
								"y": 0.5783132530120482
							}
						],
						"duration": 1
					},
					{
						"width": 78,
						"height": 83,
						"originX": 0.5,
						"originY": 0.506024,
						"originalSource": "C:\\Users\\leona\\OneDrive\\smaug\\PLAYER\\IDLE\\3.png",
						"exportFormat": "png",
						"exportQuality": 0.8,
						"imageSpriteId": 2335028,
						"collisionPoly": {
							"points": [
								0.230769,
								0.216867,
								0.5,
								0.0240964,
								0.858974,
								0.13253,
								0.923077,
								0.493976,
								0.910256,
								0.915663,
								0.5,
								0.987952,
								0.153846,
								0.855422,
								0.025641,
								0.493976
							]
						},
						"useCollisionPoly": true,
						"imagePoints": [
							{
								"name": "Imagepoint 1",
								"x": 0.923077,
								"y": 0.46988
							},
							{
								"name": "Imagepoint 2",
								"x": 0.6282051282051282,
								"y": 0.5783132530120482
							}
						],
						"duration": 1
					},
					{
						"width": 78,
						"height": 83,
						"originX": 0.5,
						"originY": 0.506024,
						"originalSource": "C:\\Users\\leona\\OneDrive\\smaug\\PLAYER\\IDLE\\4.png",
						"exportFormat": "png",
						"exportQuality": 0.8,
						"imageSpriteId": 5950501,
						"collisionPoly": {
							"points": [
								0.230769,
								0.216867,
								0.5,
								0.0240964,
								0.858974,
								0.13253,
								0.923077,
								0.493976,
								0.910256,
								0.915663,
								0.5,
								0.987952,
								0.153846,
								0.855422,
								0.025641,
								0.493976
							]
						},
						"useCollisionPoly": true,
						"imagePoints": [
							{
								"name": "Imagepoint 1",
								"x": 0.923077,
								"y": 0.46988
							},
							{
								"name": "Imagepoint 2",
								"x": 0.6282051282051282,
								"y": 0.5783132530120482
							}
						],
						"duration": 1
					},
					{
						"width": 78,
						"height": 83,
						"originX": 0.5,
						"originY": 0.506024,
						"originalSource": "C:\\Users\\leona\\OneDrive\\smaug\\PLAYER\\IDLE\\5.png",
						"exportFormat": "png",
						"exportQuality": 0.8,
						"imageSpriteId": 5743528,
						"collisionPoly": {
							"points": [
								0.217949,
								0.204819,
								0.5,
								0.0240964,
								0.858974,
								0.13253,
								0.923077,
								0.493976,
								0.923077,
								0.927711,
								0.5,
								0.987952,
								0.205128,
								0.807229,
								0.025641,
								0.493976
							]
						},
						"useCollisionPoly": true,
						"imagePoints": [
							{
								"name": "Imagepoint 1",
								"x": 0.923077,
								"y": 0.445783
							},
							{
								"name": "Imagepoint 2",
								"x": 0.6282051282051282,
								"y": 0.5783132530120482
							}
						],
						"duration": 1
					},
					{
						"width": 78,
						"height": 83,
						"originX": 0.5,
						"originY": 0.506024,
						"originalSource": "C:\\Users\\leona\\OneDrive\\smaug\\PLAYER\\IDLE\\6.png",
						"exportFormat": "png",
						"exportQuality": 0.8,
						"imageSpriteId": 9226552,
						"collisionPoly": {
							"points": [
								0.153846,
								0.144578,
								0.5,
								0.0240964,
								0.858974,
								0.13253,
								0.987179,
								0.493976,
								0.910256,
								0.915663,
								0.5,
								0.987952,
								0.217949,
								0.795181,
								0.025641,
								0.493976
							]
						},
						"useCollisionPoly": true,
						"imagePoints": [
							{
								"name": "Imagepoint 1",
								"x": 0.923077,
								"y": 0.409639
							},
							{
								"name": "Imagepoint 2",
								"x": 0.6282051282051282,
								"y": 0.5783132530120482
							}
						],
						"duration": 1
					},
					{
						"width": 78,
						"height": 83,
						"originX": 0.5,
						"originY": 0.506024,
						"originalSource": "C:\\Users\\leona\\OneDrive\\smaug\\PLAYER\\IDLE\\7.png",
						"exportFormat": "png",
						"exportQuality": 0.8,
						"imageSpriteId": 9289408,
						"collisionPoly": {
							"points": [
								0.230769,
								0.216867,
								0.5,
								0.0240964,
								0.858974,
								0.13253,
								0.923077,
								0.493976,
								0.910256,
								0.915663,
								0.5,
								0.987952,
								0.153846,
								0.855422,
								0.025641,
								0.493976
							]
						},
						"useCollisionPoly": true,
						"imagePoints": [
							{
								"name": "Imagepoint 1",
								"x": 0.923077,
								"y": 0.46988
							},
							{
								"name": "Imagepoint 2",
								"x": 0.6282051282051282,
								"y": 0.5783132530120482
							}
						],
						"duration": 1
					},
					{
						"width": 78,
						"height": 83,
						"originX": 0.5,
						"originY": 0.506024,
						"originalSource": "C:\\Users\\leona\\OneDrive\\smaug\\PLAYER\\IDLE\\8.png",
						"exportFormat": "png",
						"exportQuality": 0.8,
						"imageSpriteId": 2104839,
						"collisionPoly": {
							"points": [
								0.230769,
								0.216867,
								0.5,
								0.0240964,
								0.858974,
								0.13253,
								0.923077,
								0.493976,
								0.910256,
								0.915663,
								0.5,
								0.987952,
								0.153846,
								0.855422,
								0.025641,
								0.493976
							]
						},
						"useCollisionPoly": true,
						"imagePoints": [
							{
								"name": "Imagepoint 1",
								"x": 0.923077,
								"y": 0.46988
							},
							{
								"name": "Imagepoint 2",
								"x": 0.6282051282051282,
								"y": 0.5783132530120482
							}
						],
						"duration": 1
					}
				],
				"sid": 762852300922174,
				"name": "paradogreen",
				"isLooping": false,
				"isPingPong": false,
				"repeatCount": 1,
				"repeatTo": 0,
				"speed": 7
			},
			{
				"frames": [
					{
						"width": 76,
						"height": 81,
						"originX": 0.5,
						"originY": 0.506173,
						"originalSource": "C:\\Users\\leona\\OneDrive\\smaug\\PLAYER\\WALK\\WALK CYCLE1.png",
						"exportFormat": "png",
						"exportQuality": 0.8,
						"imageSpriteId": 4023259,
						"collisionPoly": {
							"points": [
								0.210526,
								0.197531,
								0.5,
								0.0123457,
								0.868421,
								0.123457,
								0.934211,
								0.493827,
								0.947368,
								1,
								0.447368,
								1,
								0.197368,
								0.814815,
								0.0131579,
								0.493827
							]
						},
						"useCollisionPoly": true,
						"imagePoints": [
							{
								"name": "Imagepoint 1",
								"x": 0.934211,
								"y": 0.444444
							},
							{
								"name": "Imagepoint 2",
								"x": 0.6282051282051282,
								"y": 0.5783132530120482
							}
						],
						"duration": 1
					},
					{
						"width": 76,
						"height": 81,
						"originX": 0.5,
						"originY": 0.506173,
						"originalSource": "C:\\Users\\leona\\OneDrive\\smaug\\PLAYER\\WALK\\WALK CYCLE2.png",
						"exportFormat": "png",
						"exportQuality": 0.8,
						"imageSpriteId": 2352424,
						"collisionPoly": {
							"points": [
								0.223684,
								0.209877,
								0.5,
								0.0123457,
								0.868421,
								0.123457,
								0.934211,
								0.493827,
								0.921053,
								1,
								0.5,
								1,
								0.144737,
								0.864198,
								0.0131579,
								0.493827
							]
						},
						"useCollisionPoly": true,
						"imagePoints": [
							{
								"name": "Imagepoint 1",
								"x": 0.934211,
								"y": 0.469136
							},
							{
								"name": "Imagepoint 2",
								"x": 0.6282051282051282,
								"y": 0.5783132530120482
							}
						],
						"duration": 1
					},
					{
						"width": 76,
						"height": 81,
						"originX": 0.5,
						"originY": 0.506173,
						"originalSource": "C:\\Users\\leona\\OneDrive\\smaug\\PLAYER\\WALK\\WALK CYCLE3.png",
						"exportFormat": "png",
						"exportQuality": 0.8,
						"imageSpriteId": 4575236,
						"collisionPoly": {
							"points": [
								0.223684,
								0.209877,
								0.5,
								0.0123457,
								0.868421,
								0.123457,
								0.934211,
								0.493827,
								0.842105,
								1,
								0.5,
								1,
								0.144737,
								0.864198,
								0.0131579,
								0.493827
							]
						},
						"useCollisionPoly": true,
						"imagePoints": [
							{
								"name": "Imagepoint 1",
								"x": 0.934211,
								"y": 0.469136
							},
							{
								"name": "Imagepoint 2",
								"x": 0.6282051282051282,
								"y": 0.5783132530120482
							}
						],
						"duration": 1
					},
					{
						"width": 76,
						"height": 81,
						"originX": 0.5,
						"originY": 0.506173,
						"originalSource": "C:\\Users\\leona\\OneDrive\\smaug\\PLAYER\\WALK\\WALK CYCLE4.png",
						"exportFormat": "png",
						"exportQuality": 0.8,
						"imageSpriteId": 4400741,
						"collisionPoly": {
							"points": [
								0.210526,
								0.197531,
								0.5,
								0.0123457,
								0.868421,
								0.123457,
								0.934211,
								0.493827,
								0.842105,
								1,
								0.5,
								1,
								0.197368,
								0.814815,
								0.0131579,
								0.493827
							]
						},
						"useCollisionPoly": true,
						"imagePoints": [
							{
								"name": "Imagepoint 1",
								"x": 0.934211,
								"y": 0.444444
							},
							{
								"name": "Imagepoint 2",
								"x": 0.6282051282051282,
								"y": 0.5783132530120482
							}
						],
						"duration": 1
					},
					{
						"width": 76,
						"height": 81,
						"originX": 0.5,
						"originY": 0.506173,
						"originalSource": "C:\\Users\\leona\\OneDrive\\smaug\\PLAYER\\WALK\\WALK CYCLE5.png",
						"exportFormat": "png",
						"exportQuality": 0.8,
						"imageSpriteId": 7449828,
						"collisionPoly": {
							"points": [
								0.197368,
								0.185185,
								0.5,
								0.0123457,
								0.868421,
								0.123457,
								1,
								0.493827,
								0.842105,
								1,
								0.5,
								1,
								0.25,
								0.765432,
								0.0131579,
								0.493827
							]
						},
						"useCollisionPoly": true,
						"imagePoints": [
							{
								"name": "Imagepoint 1",
								"x": 0.934211,
								"y": 0.419753
							},
							{
								"name": "Imagepoint 2",
								"x": 0.6282051282051282,
								"y": 0.5783132530120482
							}
						],
						"duration": 1
					},
					{
						"width": 76,
						"height": 81,
						"originX": 0.5,
						"originY": 0.506173,
						"originalSource": "C:\\Users\\leona\\OneDrive\\smaug\\PLAYER\\WALK\\WALK CYCLE6.png",
						"exportFormat": "png",
						"exportQuality": 0.8,
						"imageSpriteId": 5758288,
						"collisionPoly": {
							"points": [
								0.197368,
								0.185185,
								0.5,
								0.0123457,
								0.868421,
								0.123457,
								1,
								0.493827,
								0.934211,
								1,
								0.5,
								1,
								0.25,
								0.765432,
								0.0131579,
								0.493827
							]
						},
						"useCollisionPoly": true,
						"imagePoints": [
							{
								"name": "Imagepoint 1",
								"x": 0.934211,
								"y": 0.419753
							},
							{
								"name": "Imagepoint 2",
								"x": 0.6282051282051282,
								"y": 0.5783132530120482
							}
						],
						"duration": 1
					},
					{
						"width": 76,
						"height": 81,
						"originX": 0.5,
						"originY": 0.506173,
						"originalSource": "C:\\Users\\leona\\OneDrive\\smaug\\PLAYER\\WALK\\WALK CYCLE7.png",
						"exportFormat": "png",
						"exportQuality": 0.8,
						"imageSpriteId": 5331873,
						"collisionPoly": {
							"points": [
								0.197368,
								0.185185,
								0.5,
								0.0123457,
								0.868421,
								0.123457,
								1,
								0.493827,
								0.921053,
								1,
								0.25,
								1,
								0.25,
								0.765432,
								0.0131579,
								0.493827
							]
						},
						"useCollisionPoly": true,
						"imagePoints": [
							{
								"name": "Imagepoint 1",
								"x": 0.934211,
								"y": 0.419753
							},
							{
								"name": "Imagepoint 2",
								"x": 0.6282051282051282,
								"y": 0.5783132530120482
							}
						],
						"duration": 1
					},
					{
						"width": 76,
						"height": 81,
						"originX": 0.5,
						"originY": 0.506173,
						"originalSource": "C:\\Users\\leona\\OneDrive\\smaug\\PLAYER\\WALK\\WALK CYCLE8.png",
						"exportFormat": "png",
						"exportQuality": 0.8,
						"imageSpriteId": 1709023,
						"collisionPoly": {
							"points": [
								0.210526,
								0.197531,
								0.5,
								0.0123457,
								0.868421,
								0.123457,
								0.934211,
								0.493827,
								1,
								1,
								0.394737,
								1,
								0.197368,
								0.814815,
								0.0131579,
								0.493827
							]
						},
						"useCollisionPoly": true,
						"imagePoints": [
							{
								"name": "Imagepoint 1",
								"x": 0.934211,
								"y": 0.444444
							},
							{
								"name": "Imagepoint 2",
								"x": 0.6282051282051282,
								"y": 0.5783132530120482
							}
						],
						"duration": 1
					},
					{
						"width": 76,
						"height": 81,
						"originX": 0.5,
						"originY": 0.506173,
						"originalSource": "C:\\Users\\leona\\OneDrive\\smaug\\PLAYER\\WALK\\WALK CYCLE9.png",
						"exportFormat": "png",
						"exportQuality": 0.8,
						"imageSpriteId": 3349503,
						"collisionPoly": {
							"points": [
								0.223684,
								0.209877,
								0.5,
								0.0123457,
								0.868421,
								0.123457,
								0.934211,
								0.493827,
								0.947368,
								1,
								0.421053,
								1,
								0.144737,
								0.864198,
								0.0131579,
								0.493827
							]
						},
						"useCollisionPoly": true,
						"imagePoints": [
							{
								"name": "Imagepoint 1",
								"x": 0.934211,
								"y": 0.469136
							},
							{
								"name": "Imagepoint 2",
								"x": 0.6282051282051282,
								"y": 0.5783132530120482
							}
						],
						"duration": 1
					},
					{
						"width": 76,
						"height": 81,
						"originX": 0.5,
						"originY": 0.506173,
						"originalSource": "C:\\Users\\leona\\OneDrive\\smaug\\PLAYER\\WALK\\WALK CYCLE10.png",
						"exportFormat": "png",
						"exportQuality": 0.8,
						"imageSpriteId": 4652714,
						"collisionPoly": {
							"points": [
								0.223684,
								0.209877,
								0.5,
								0.0123457,
								0.868421,
								0.123457,
								0.934211,
								0.493827,
								0.907895,
								1,
								0.5,
								1,
								0.144737,
								0.864198,
								0.0131579,
								0.493827
							]
						},
						"useCollisionPoly": true,
						"imagePoints": [
							{
								"name": "Imagepoint 1",
								"x": 0.934211,
								"y": 0.469136
							},
							{
								"name": "Imagepoint 2",
								"x": 0.6282051282051282,
								"y": 0.5783132530120482
							}
						],
						"duration": 1
					},
					{
						"width": 76,
						"height": 81,
						"originX": 0.5,
						"originY": 0.506173,
						"originalSource": "C:\\Users\\leona\\OneDrive\\smaug\\PLAYER\\WALK\\WALK CYCLE11.png",
						"exportFormat": "png",
						"exportQuality": 0.8,
						"imageSpriteId": 7470800,
						"collisionPoly": {
							"points": [
								0.210526,
								0.197531,
								0.5,
								0.0123457,
								0.868421,
								0.123457,
								0.934211,
								0.493827,
								0.828947,
								1,
								0.5,
								1,
								0.197368,
								0.814815,
								0.0131579,
								0.493827
							]
						},
						"useCollisionPoly": true,
						"imagePoints": [
							{
								"name": "Imagepoint 1",
								"x": 0.934211,
								"y": 0.444444
							},
							{
								"name": "Imagepoint 2",
								"x": 0.6282051282051282,
								"y": 0.5783132530120482
							}
						],
						"duration": 1
					},
					{
						"width": 76,
						"height": 81,
						"originX": 0.5,
						"originY": 0.506173,
						"originalSource": "C:\\Users\\leona\\OneDrive\\smaug\\PLAYER\\WALK\\WALK CYCLE12.png",
						"exportFormat": "png",
						"exportQuality": 0.8,
						"imageSpriteId": 7190664,
						"collisionPoly": {
							"points": [
								0.197368,
								0.185185,
								0.5,
								0.0123457,
								0.868421,
								0.123457,
								1,
								0.493827,
								0.842105,
								1,
								0.381579,
								1,
								0.25,
								0.765432,
								0.0131579,
								0.493827
							]
						},
						"useCollisionPoly": true,
						"imagePoints": [
							{
								"name": "Imagepoint 1",
								"x": 0.934211,
								"y": 0.419753
							},
							{
								"name": "Imagepoint 2",
								"x": 0.6282051282051282,
								"y": 0.5783132530120482
							}
						],
						"duration": 1
					},
					{
						"width": 76,
						"height": 81,
						"originX": 0.5,
						"originY": 0.506173,
						"originalSource": "C:\\Users\\leona\\OneDrive\\smaug\\PLAYER\\WALK\\WALK CYCLE13.png",
						"exportFormat": "png",
						"exportQuality": 0.8,
						"imageSpriteId": 783705,
						"collisionPoly": {
							"points": [
								0.197368,
								0.185185,
								0.5,
								0.0123457,
								0.868421,
								0.123457,
								1,
								0.493827,
								0.934211,
								1,
								0.368421,
								1,
								0.25,
								0.765432,
								0.0131579,
								0.493827
							]
						},
						"useCollisionPoly": true,
						"imagePoints": [
							{
								"name": "Imagepoint 1",
								"x": 0.934211,
								"y": 0.419753
							},
							{
								"name": "Imagepoint 2",
								"x": 0.6282051282051282,
								"y": 0.5783132530120482
							}
						],
						"duration": 1
					},
					{
						"width": 76,
						"height": 81,
						"originX": 0.5,
						"originY": 0.506173,
						"originalSource": "C:\\Users\\leona\\OneDrive\\smaug\\PLAYER\\WALK\\WALK CYCLE14.png",
						"exportFormat": "png",
						"exportQuality": 0.8,
						"imageSpriteId": 774494,
						"collisionPoly": {
							"points": [
								0.197368,
								0.185185,
								0.5,
								0.0123457,
								0.868421,
								0.123457,
								1,
								0.493827,
								0.868421,
								1,
								0.276316,
								1,
								0.25,
								0.765432,
								0.0131579,
								0.493827
							]
						},
						"useCollisionPoly": true,
						"imagePoints": [
							{
								"name": "Imagepoint 1",
								"x": 0.934211,
								"y": 0.419753
							},
							{
								"name": "Imagepoint 2",
								"x": 0.6282051282051282,
								"y": 0.5783132530120482
							}
						],
						"duration": 1
					}
				],
				"sid": 682881121535681,
				"name": "andandogreen",
				"isLooping": true,
				"isPingPong": false,
				"repeatCount": 1,
				"repeatTo": 0,
				"speed": 10
			},
			{
				"frames": [
					{
						"width": 76,
						"height": 76,
						"originX": 0.473684,
						"originY": 0.473684,
						"originalSource": "C:\\Users\\leona\\OneDrive\\smaug\\PLAYER\\JUMP\\Jump1.png",
						"exportFormat": "png",
						"exportQuality": 0.8,
						"imageSpriteId": 6789964,
						"collisionPoly": {
							"points": [
								0.210526,
								0.210526,
								0.5,
								0.0131579,
								0.868421,
								0.131579,
								0.934211,
								0.5,
								0.848684,
								1,
								0.486842,
								1,
								0.296053,
								1,
								0.0131579,
								0.5
							]
						},
						"useCollisionPoly": true,
						"imagePoints": [
							{
								"name": "Imagepoint 1",
								"x": 0.9342105263157895,
								"y": 0.47368421052631576
							},
							{
								"name": "Imagepoint 2",
								"x": 0.6282051282051282,
								"y": 0.5783132530120482
							}
						],
						"duration": 1
					},
					{
						"width": 76,
						"height": 76,
						"originX": 0.473684,
						"originY": 0.447368,
						"originalSource": "C:\\Users\\leona\\OneDrive\\smaug\\PLAYER\\JUMP\\Jump2.png",
						"exportFormat": "png",
						"exportQuality": 0.8,
						"imageSpriteId": 2897354,
						"collisionPoly": {
							"points": [
								0.197368,
								0.197368,
								0.5,
								0.0131579,
								0.868421,
								0.131579,
								1,
								0.5,
								0.861842,
								0.947368,
								0.381579,
								1,
								0.184211,
								0.815789,
								0.0131579,
								0.5
							]
						},
						"useCollisionPoly": true,
						"imagePoints": [
							{
								"name": "Imagepoint 1",
								"x": 0.9210526315789473,
								"y": 0.4605263157894737
							},
							{
								"name": "Imagepoint 2",
								"x": 0.6282051282051282,
								"y": 0.5783132530120482
							}
						],
						"duration": 1
					},
					{
						"width": 76,
						"height": 76,
						"originX": 0.473684,
						"originY": 0.447368,
						"originalSource": "C:\\Users\\leona\\OneDrive\\smaug\\PLAYER\\JUMP\\Jump3.png",
						"exportFormat": "png",
						"exportQuality": 0.8,
						"imageSpriteId": 3833439,
						"collisionPoly": {
							"points": [
								0.197368,
								0.197368,
								0.5,
								0.0131579,
								0.868421,
								0.131579,
								1,
								0.5,
								0.861842,
								0.947368,
								0.414474,
								1,
								0.184211,
								0.815789,
								0.0131579,
								0.5
							]
						},
						"useCollisionPoly": true,
						"imagePoints": [
							{
								"name": "Imagepoint 1",
								"x": 0.9210526315789473,
								"y": 0.4605263157894737
							},
							{
								"name": "Imagepoint 2",
								"x": 0.6282051282051282,
								"y": 0.5783132530120482
							}
						],
						"duration": 1
					},
					{
						"width": 76,
						"height": 76,
						"originX": 0.473684,
						"originY": 0.447368,
						"originalSource": "C:\\Users\\leona\\OneDrive\\smaug\\PLAYER\\JUMP\\Jump4.png",
						"exportFormat": "png",
						"exportQuality": 0.8,
						"imageSpriteId": 8726919,
						"collisionPoly": {
							"points": [
								0.197368,
								0.197368,
								0.5,
								0.0131579,
								0.868421,
								0.131579,
								1,
								0.5,
								0.875,
								0.927631,
								0.388158,
								1,
								0.184211,
								0.815789,
								0.0131579,
								0.5
							]
						},
						"useCollisionPoly": true,
						"imagePoints": [
							{
								"name": "Imagepoint 1",
								"x": 0.9210526315789473,
								"y": 0.4605263157894737
							},
							{
								"name": "Imagepoint 2",
								"x": 0.6282051282051282,
								"y": 0.5783132530120482
							}
						],
						"duration": 1
					},
					{
						"width": 76,
						"height": 76,
						"originX": 0.473684,
						"originY": 0.447368,
						"originalSource": "C:\\Users\\leona\\OneDrive\\smaug\\PLAYER\\JUMP\\Jump5.png",
						"exportFormat": "png",
						"exportQuality": 0.8,
						"imageSpriteId": 417797,
						"collisionPoly": {
							"points": [
								0.197368,
								0.197368,
								0.5,
								0.0131579,
								0.868421,
								0.131579,
								1,
								0.5,
								0.881579,
								0.934211,
								0.375,
								1,
								0.184211,
								0.815789,
								0.0131579,
								0.5
							]
						},
						"useCollisionPoly": true,
						"imagePoints": [
							{
								"name": "Imagepoint 1",
								"x": 0.9210526315789473,
								"y": 0.4605263157894737
							},
							{
								"name": "Imagepoint 2",
								"x": 0.6282051282051282,
								"y": 0.5783132530120482
							}
						],
						"duration": 1
					},
					{
						"width": 76,
						"height": 76,
						"originX": 0.473684,
						"originY": 0.447368,
						"originalSource": "C:\\Users\\leona\\OneDrive\\smaug\\PLAYER\\JUMP\\Jump6.png",
						"exportFormat": "png",
						"exportQuality": 0.8,
						"imageSpriteId": 600145,
						"collisionPoly": {
							"points": [
								0.0789474,
								0.0789474,
								0.5,
								0.0131579,
								0.868421,
								0.131579,
								1,
								0.5,
								0.789474,
								1,
								0.5,
								1,
								0.184211,
								0.815789,
								0.0131579,
								0.5
							]
						},
						"useCollisionPoly": true,
						"imagePoints": [
							{
								"name": "Imagepoint 1",
								"x": 0.9210526315789473,
								"y": 0.4605263157894737
							},
							{
								"name": "Imagepoint 2",
								"x": 0.6282051282051282,
								"y": 0.5783132530120482
							}
						],
						"duration": 1
					},
					{
						"width": 76,
						"height": 76,
						"originX": 0.473684,
						"originY": 0.473684,
						"originalSource": "C:\\Users\\leona\\OneDrive\\smaug\\PLAYER\\JUMP\\Jump7.png",
						"exportFormat": "png",
						"exportQuality": 0.8,
						"imageSpriteId": 4917235,
						"collisionPoly": {
							"points": [
								0.210526,
								0.210526,
								0.5,
								0.0131579,
								0.868421,
								0.131579,
								0.934211,
								0.5,
								0.855264,
								1,
								0.5,
								1,
								0.144737,
								0.855263,
								0.0131579,
								0.5
							]
						},
						"useCollisionPoly": true,
						"imagePoints": [
							{
								"name": "Imagepoint 1",
								"x": 0.934211,
								"y": 0.473684
							},
							{
								"name": "Imagepoint 2",
								"x": 0.6282051282051282,
								"y": 0.5783132530120482
							}
						],
						"duration": 1
					}
				],
				"sid": 643039718366758,
				"name": "pulargreen",
				"isLooping": false,
				"isPingPong": false,
				"repeatCount": 1,
				"repeatTo": 0,
				"speed": 4
			},
			{
				"frames": [
					{
						"width": 202,
						"height": 162,
						"originX": 0.450495,
						"originY": 0.561728,
						"originalSource": "D:\\sprites\\idle\\pistol\\1.png",
						"exportFormat": "png",
						"exportQuality": 0.8,
						"imageSpriteId": 9829065,
						"useCollisionPoly": true,
						"imagePoints": [
							{
								"name": "Imagepoint 2",
								"x": 0.6282051282051282,
								"y": 0.5783132530120482
							}
						],
						"duration": 1
					},
					{
						"width": 202,
						"height": 152,
						"originX": 0.450495,
						"originY": 0.532895,
						"originalSource": "D:\\sprites\\idle\\pistol\\2.png",
						"exportFormat": "png",
						"exportQuality": 0.8,
						"imageSpriteId": 3316719,
						"useCollisionPoly": true,
						"imagePoints": [
							{
								"name": "Imagepoint 2",
								"x": 0.6282051282051282,
								"y": 0.5783132530120482
							}
						],
						"duration": 1
					},
					{
						"width": 202,
						"height": 152,
						"originX": 0.450495,
						"originY": 0.532895,
						"originalSource": "D:\\sprites\\idle\\pistol\\3.png",
						"exportFormat": "png",
						"exportQuality": 0.8,
						"imageSpriteId": 232655,
						"useCollisionPoly": true,
						"imagePoints": [
							{
								"name": "Imagepoint 2",
								"x": 0.6282051282051282,
								"y": 0.5783132530120482
							}
						],
						"duration": 1
					},
					{
						"width": 202,
						"height": 152,
						"originX": 0.450495,
						"originY": 0.532895,
						"originalSource": "D:\\sprites\\idle\\pistol\\4.png",
						"exportFormat": "png",
						"exportQuality": 0.8,
						"imageSpriteId": 7272357,
						"useCollisionPoly": true,
						"imagePoints": [
							{
								"name": "Imagepoint 2",
								"x": 0.6282051282051282,
								"y": 0.5783132530120482
							}
						],
						"duration": 1
					},
					{
						"width": 202,
						"height": 162,
						"originX": 0.450495,
						"originY": 0.561728,
						"originalSource": "D:\\sprites\\idle\\pistol\\5.png",
						"exportFormat": "png",
						"exportQuality": 0.8,
						"imageSpriteId": 1356780,
						"useCollisionPoly": true,
						"imagePoints": [
							{
								"name": "Imagepoint 2",
								"x": 0.6282051282051282,
								"y": 0.5783132530120482
							}
						],
						"duration": 1
					},
					{
						"width": 202,
						"height": 152,
						"originX": 0.450495,
						"originY": 0.532895,
						"originalSource": "D:\\sprites\\idle\\pistol\\6.png",
						"exportFormat": "png",
						"exportQuality": 0.8,
						"imageSpriteId": 4275897,
						"useCollisionPoly": true,
						"imagePoints": [
							{
								"name": "Imagepoint 2",
								"x": 0.6282051282051282,
								"y": 0.5783132530120482
							}
						],
						"duration": 1
					},
					{
						"width": 202,
						"height": 152,
						"originX": 0.450495,
						"originY": 0.532895,
						"originalSource": "D:\\sprites\\idle\\pistol\\7.png",
						"exportFormat": "png",
						"exportQuality": 0.8,
						"imageSpriteId": 5195636,
						"useCollisionPoly": true,
						"imagePoints": [
							{
								"name": "Imagepoint 2",
								"x": 0.6282051282051282,
								"y": 0.5783132530120482
							}
						],
						"duration": 1
					},
					{
						"width": 202,
						"height": 152,
						"originX": 0.450495,
						"originY": 0.532895,
						"originalSource": "D:\\sprites\\idle\\pistol\\8.png",
						"exportFormat": "png",
						"exportQuality": 0.8,
						"imageSpriteId": 4386996,
						"useCollisionPoly": true,
						"imagePoints": [
							{
								"name": "Imagepoint 2",
								"x": 0.6282051282051282,
								"y": 0.5783132530120482
							}
						],
						"duration": 1
					}
				],
				"sid": 865187003877539,
				"name": "paradoPistola",
				"isLooping": true,
				"isPingPong": false,
				"repeatCount": 1,
				"repeatTo": 0,
				"speed": 5
			},
			{
				"frames": [
					{
						"width": 51,
						"height": 81,
						"originX": 0.509804,
						"originY": 0.506173,
						"originalSource": "C:\\Users\\leona\\OneDrive\\smaug\\PLAYER\\DEATH\\death player1.png",
						"exportFormat": "png",
						"exportQuality": 0.8,
						"imageSpriteId": 592523,
						"useCollisionPoly": true,
						"imagePoints": [
							{
								"name": "Imagepoint 2",
								"x": 0.6282051282051282,
								"y": 0.5783132530120482
							}
						],
						"duration": 1
					},
					{
						"width": 51,
						"height": 81,
						"originX": 0.509804,
						"originY": 0.506173,
						"originalSource": "C:\\Users\\leona\\OneDrive\\smaug\\PLAYER\\DEATH\\death player2.png",
						"exportFormat": "png",
						"exportQuality": 0.8,
						"imageSpriteId": 7011577,
						"useCollisionPoly": true,
						"imagePoints": [
							{
								"name": "Imagepoint 2",
								"x": 0.6282051282051282,
								"y": 0.5783132530120482
							}
						],
						"duration": 1
					},
					{
						"width": 51,
						"height": 71,
						"originX": 0.509804,
						"originY": 0.507042,
						"originalSource": "C:\\Users\\leona\\OneDrive\\smaug\\PLAYER\\DEATH\\death player3.png",
						"exportFormat": "png",
						"exportQuality": 0.8,
						"imageSpriteId": 4427083,
						"useCollisionPoly": true,
						"imagePoints": [
							{
								"name": "Imagepoint 2",
								"x": 0.6282051282051282,
								"y": 0.5783132530120482
							}
						],
						"duration": 1
					},
					{
						"width": 51,
						"height": 61,
						"originX": 0.509804,
						"originY": 0.508197,
						"originalSource": "C:\\Users\\leona\\OneDrive\\smaug\\PLAYER\\DEATH\\death player4.png",
						"exportFormat": "png",
						"exportQuality": 0.8,
						"imageSpriteId": 9952490,
						"useCollisionPoly": true,
						"imagePoints": [
							{
								"name": "Imagepoint 2",
								"x": 0.6282051282051282,
								"y": 0.5783132530120482
							}
						],
						"duration": 1
					},
					{
						"width": 81,
						"height": 46,
						"originX": 0.506173,
						"originY": 0,
						"originalSource": "C:\\Users\\leona\\OneDrive\\smaug\\PLAYER\\DEATH\\death player5.png",
						"exportFormat": "png",
						"exportQuality": 0.8,
						"imageSpriteId": 8351834,
						"useCollisionPoly": true,
						"imagePoints": [
							{
								"name": "Imagepoint 2",
								"x": 0.6282051282051282,
								"y": 0.5783132530120482
							}
						],
						"duration": 1
					}
				],
				"sid": 451241952037684,
				"name": "Death",
				"isLooping": false,
				"isPingPong": false,
				"repeatCount": 1,
				"repeatTo": 0,
				"speed": 3
			}
		],
		"subfolders": []
	}
}