{
	"name": "SHHS",
	"plugin-id": "Sprite",
	"sid": 456438286955685,
	"isGlobal": false,
	"instanceVariables": [],
	"behaviorTypes": [
		{
			"behaviorId": "Flash",
			"name": "Flash",
			"sid": 225196201191202
		}
	],
	"effectTypes": [],
	"animations": {
		"items": [
			{
				"frames": [
					{
						"width": 152,
						"height": 82,
						"originX": 0.5,
						"originY": 0.5,
						"originalSource": "C:\\Users\\leona\\OneDrive\\smaug\\sprites.png",
						"exportFormat": "png",
						"exportQuality": 0.8,
						"imageSpriteId": 3216073,
						"collisionPoly": {
							"points": [
								0,
								1,
								1,
								0,
								1,
								1,
								1,
								1,
								1,
								1,
								1,
								1
							]
						},
						"useCollisionPoly": true,
						"imagePoints": [
							{
								"name": "Imagepoint 1",
								"x": 0.986842,
								"y": 0.439024
							}
						],
						"duration": 1
					}
				],
				"sid": 696426424876146,
				"name": "Default",
				"isLooping": false,
				"isPingPong": false,
				"repeatCount": 1,
				"repeatTo": 0,
				"speed": 5
			}
		],
		"subfolders": []
	}
}