{
	"name": "spawn_espinhps",
	"plugin-id": "Sprite",
	"sid": 360915086042552,
	"isGlobal": false,
	"instanceVariables": [],
	"behaviorTypes": [],
	"effectTypes": [],
	"animations": {
		"items": [
			{
				"frames": [
					{
						"width": 250,
						"height": 250,
						"originX": 0,
						"originY": 1,
						"originalSource": "",
						"exportFormat": "png",
						"exportQuality": 0.8,
						"imageSpriteId": 6060907,
						"useCollisionPoly": true,
						"imagePoints": [
							{
								"name": "Ponto de Imagem 1",
								"x": 1,
								"y": 1
							}
						],
						"duration": 1
					}
				],
				"sid": 659540613268553,
				"name": "Animation 1",
				"isLooping": false,
				"isPingPong": false,
				"repeatCount": 1,
				"repeatTo": 0,
				"speed": 5
			}
		],
		"subfolders": []
	}
}