{
	"name": "Sprite11",
	"plugin-id": "Sprite",
	"sid": 661924457770202,
	"isGlobal": false,
	"instanceVariables": [],
	"behaviorTypes": [],
	"effectTypes": [],
	"animations": {
		"items": [
			{
				"frames": [
					{
						"width": 182,
						"height": 132,
						"originX": 0.5,
						"originY": 1,
						"originalSource": "C:\\Users\\leona\\OneDrive\\smaug\\sprites.png",
						"exportFormat": "png",
						"exportQuality": 0.8,
						"imageSpriteId": 136059,
						"collisionPoly": {
							"points": [
								0,
								0,
								1,
								0,
								1,
								0,
								1,
								0.537879,
								1,
								0,
								1,
								0
							]
						},
						"useCollisionPoly": true,
						"duration": 1
					}
				],
				"sid": 537830907672321,
				"name": "Default",
				"isLooping": false,
				"isPingPong": false,
				"repeatCount": 1,
				"repeatTo": 0,
				"speed": 5
			}
		],
		"subfolders": []
	}
}