{
	"name": "Sprite",
	"plugin-id": "Sprite",
	"sid": 312644609776964,
	"isGlobal": false,
	"instanceVariables": [],
	"behaviorTypes": [],
	"effectTypes": [],
	"animations": {
		"items": [
			{
				"frames": [
					{
						"width": 514,
						"height": 258,
						"originX": 0.5,
						"originY": 0.5,
						"originalSource": "C:\\Users\\leona\\OneDrive\\smaug\\sprites2.png",
						"exportFormat": "png",
						"exportQuality": 0.8,
						"imageSpriteId": 8145914,
						"collisionPoly": {
							"points": [
								0.101167,
								0.20155,
								0.5,
								0,
								0.961089,
								0.0775194,
								0.963035,
								0.926357,
								0.5,
								0.655039,
								0.2607,
								0.48062,
								0.435798,
								0.5
							]
						},
						"useCollisionPoly": true,
						"duration": 1
					}
				],
				"sid": 161653626359637,
				"name": "Default",
				"isLooping": false,
				"isPingPong": false,
				"repeatCount": 1,
				"repeatTo": 0,
				"speed": 5
			}
		],
		"subfolders": []
	}
}