{
	"name": "Start",
	"plugin-id": "Sprite",
	"sid": 506621199380044,
	"isGlobal": false,
	"instanceVariables": [],
	"behaviorTypes": [],
	"effectTypes": [],
	"animations": {
		"items": [
			{
				"frames": [
					{
						"width": 632,
						"height": 222,
						"originX": 0.5,
						"originY": 0.5,
						"originalSource": "",
						"exportFormat": "png",
						"exportQuality": 0.8,
						"imageSpriteId": 1167258,
						"useCollisionPoly": true,
						"duration": 1
					},
					{
						"width": 632,
						"height": 192,
						"originX": 0.5,
						"originY": 0.5,
						"originalSource": "C:\\Users\\leona\\Downloads\\buttons.png",
						"exportFormat": "png",
						"exportQuality": 0.8,
						"imageSpriteId": 1433730,
						"useCollisionPoly": true,
						"duration": 1
					}
				],
				"sid": 417351035441725,
				"name": "jogar",
				"isLooping": false,
				"isPingPong": false,
				"repeatCount": 1,
				"repeatTo": 0,
				"speed": 0
			},
			{
				"frames": [
					{
						"width": 651,
						"height": 196,
						"originX": 0.500768,
						"originY": 0.5,
						"originalSource": "D:\\sprites\\miscellanious\\buttons.png",
						"exportFormat": "png",
						"exportQuality": 0.8,
						"imageSpriteId": 58619,
						"useCollisionPoly": true,
						"duration": 1
					}
				],
				"sid": 699384971562166,
				"name": "jogarPressed",
				"isLooping": false,
				"isPingPong": false,
				"repeatCount": 1,
				"repeatTo": 0,
				"speed": 5
			}
		],
		"subfolders": []
	}
}