{
	"name": "TETO",
	"plugin-id": "TiledBg",
	"sid": 758890190622751,
	"isGlobal": false,
	"instanceVariables": [],
	"behaviorTypes": [],
	"effectTypes": [],
	"image": {
		"width": 80,
		"height": 80,
		"originX": 0.5,
		"originY": 0.5,
		"originalSource": "D:\\sprites\\floresta-4.png",
		"exportFormat": "png",
		"exportQuality": 0.8,
		"imageSpriteId": 9779915,
		"useCollisionPoly": true
	}
}