{
	"name": "venda",
	"plugin-id": "Sprite",
	"sid": 208204270283304,
	"isGlobal": false,
	"instanceVariables": [],
	"behaviorTypes": [],
	"effectTypes": [],
	"animations": {
		"items": [
			{
				"frames": [
					{
						"width": 150,
						"height": 132,
						"originX": 0.5,
						"originY": 0.393939,
						"originalSource": "D:\\sprites\\venda.png",
						"exportFormat": "png",
						"exportQuality": 0.8,
						"imageSpriteId": 2588433,
						"collisionPoly": {
							"points": [
								0.5,
								0.00757576,
								0.590062,
								0.280303,
								0.618012,
								0.390152,
								0.996894,
								0.996212,
								0.00310559,
								0.996212,
								0.381988,
								0.390152
							]
						},
						"useCollisionPoly": true,
						"imagePoints": [
							{
								"name": "bandeira",
								"x": 0.5,
								"y": 0.0227273
							}
						],
						"duration": 1
					}
				],
				"sid": 122183278294971,
				"name": "Default",
				"isLooping": false,
				"isPingPong": false,
				"repeatCount": 1,
				"repeatTo": 0,
				"speed": 5
			}
		],
		"subfolders": []
	}
}